{
  "logs": [
    {
      "id": 2,
      "message": "New Screen requested on workstation 002",
      "tech": "Peter Lehto",
      "attention": true,
      "date": "2023-01-24T22:48:00.948Z"
    },
    {
      "message": "Laptop requested on workstation 003",
      "tech": "Liz Zwane",
      "attention": false,
      "date": "2023-01-24T17:09:38.692Z",
      "id": 3
    },
    {
      "message": "New monitor requested on workstation 004",
      "tech": "Jason Roberts",
      "attention": false,
      "date": "2023-01-24T17:10:15.685Z",
      "id": 4
    },
    {
      "id": 5,
      "message": "Replaced Monitor on workstation 005",
      "tech": "Jesse Hemson-Struthers",
      "attention": true,
      "date": "2023-01-24T21:39:16.466Z"
    },
    {
      "message": "New chair requested for workstation 006",
      "tech": "Donald J.",
      "attention": false,
      "date": "2023-01-24T17:11:52.279Z",
      "id": 6
    },
    {
      "id": 7,
      "message": "New iPhone requested for workstation 008",
      "tech": "Steve Jobs",
      "attention": true,
      "date": "2023-01-25T17:55:53.443Z"
    }
  ],
  "techs": [
    {
      "id": 1,
      "firstName": "John",
      "lastName": "Doe"
    },
    {
      "id": 2,
      "firstName": "Sam",
      "lastName": "Smith"
    },
    {
      "firstName": "Jennifer",
      "lastName": "Williams",
      "id": 4
    },
    {
      "firstName": "David",
      "lastName": "Meade",
      "id": 5
    },
    {
      "firstName": "Sam",
      "lastName": "Altman",
      "id": 6
    },
    {
      "firstName": "Peter",
      "lastName": "Lehto",
      "id": 7
    },
    {
      "firstName": "Liz",
      "lastName": "Zwane",
      "id": 8
    },
    {
      "firstName": "Jason",
      "lastName": "Roberts",
      "id": 9
    },
    {
      "firstName": "Donald",
      "lastName": "J.",
      "id": 10
    },
    {
      "firstName": "Jesse",
      "lastName": "Hemson-Struthers",
      "id": 11
    },
    {
      "firstName": "Kent",
      "lastName": "Dodds",
      "id": 12
    },
    {
      "firstName": "Steve",
      "lastName": "Jobs",
      "id": 13
    }
  ]
}